// Jest Snapshot v1, https://goo.gl/fbAQLP

exports[`App should render correctly 1`] = `
<div
  className="dashboardContainer"
>
  <div
    className="login-container"
  >
    <div
      className="login_content"
    >
      <div
        className="login_left_content"
      >
        <div
          className="login_left_inner"
        >
          <img
            alt="company-logo"
            src={
              Object {
                "process": [Function],
              }
            }
          />
          <h2>
            Welcome to
            <br />
            Affle Accounting Dashboard
          </h2>
          <p>
            Lorem Ipsum is simply dummy text of the printing & typesetting industry. Lorem Ipsum has been the industry's ever since the 1500s.
          </p>
        </div>
      </div>
      <div
        className="login_right_content"
      >
        <div
          className="login_right_inner"
        >
          <div
            className="login_tabs"
          >
            <div
              className="sign_in_inner"
            >
              <h3>
                SIGN IN WITH
              </h3>
              <div
                className="google_signin_wrapper"
              >
                <div
                  className="sign_in_btn"
                >
                  YOLO
                </div>
              </div>
            </div>
          </div>
        </div>
      </div>
    </div>
  </div>
</div>
`;
